
<svg id="logButton_active" width="28px" height="28px" version="1.1" xmlns="http://www.w3.org/2000/svg" xmlns:xlink="http://www.w3.org/1999/xlink" x="0px" y="0px" viewBox="0 0 500 500" style="fill: rgb(0, 113, 186);" xml:space="preserve">
    <path class="svg-color1" d="M245.5,3.1c-71.1,0-128.8,57.7-128.8,128.8s57.7,128.8,128.8,128.8S374.3,203,374.3,131.9S316.6,3.1,245.5,3.1
        C245.5,3.1,245.5,3.1,245.5,3.1z"></path>
    <path d="M245.5,20.7c61.4,0,111.2,49.8,111.2,111.2S306.9,243,245.5,243s-111.2-49.8-111.2-111.2l0,0
        C134.4,70.5,184.1,20.8,245.5,20.7z"></path>
    <path class="svg-color1" d="M309.9,303H181.1C67.4,303,12,377.8,12,464.6v21.5c0,5.9,2.2,10.9,8.1,10.9h450.8c5.9,0,17.1,0.1,17.1-10.9
        v-21.5C488,377.8,423.6,303,309.9,303z"></path>
    <path d="M309.9,320.6c77.3,0,160.5,45.1,160.5,144v14.7H29.6v-14.7c0-69.6,39.8-144,151.5-144L309.9,320.6z"></path>
      </svg>

